97,97,NM
98,97,30
98,98,NM
99,97,NM
99,98,NM
99,99,NM
100,97,NM
100,98,NM
100,99,NM
100,100,NM
101,97,30
101,98,NM
101,99,NM
101,100,NM
101,101,NM
102,97,15
102,98,30
102,99,NM
102,100,NM
102,101,30
102,102,NM
103,97,15
103,98,15
103,99,NM
103,100,NM
103,101,6
103,102,30
103,103,NM
104,97,30
104,98,30
104,99,NM
104,100,NM
104,101,0
104,102,30
104,103,NM
104,104,NM
105,97,15
105,98,8
105,99,NM
105,100,NM
105,101,0
105,102,6
105,103,NM
105,104,NM
105,105,NM
106,97,61
106,98,30
106,99,NM
106,100,NM
106,101,15
106,102,30
106,103,8
106,104,15
106,105,NM
106,106,NM
107,97,NM
107,98,NM
107,99,NM
107,100,NM
107,101,NM
107,102,NM
107,103,NM
107,104,NM
107,105,NM
107,106,NM
107,107,NM
108,97,61
108,98,30
108,99,NM
108,100,NM
108,101,15
108,102,30
108,103,6
108,104,0
108,105,0
108,106,15
108,107,NM
108,108,NM
109,97,30
109,98,61
109,99,NM
109,100,NM
109,101,46
109,102,30
109,103,15
109,104,30
109,105,15
109,106,61
109,107,NM
109,108,30
109,109,NM
110,97,15
110,98,30
110,99,NM
110,100,NM
110,101,30
110,102,30
110,103,8
110,104,30
110,105,30
110,106,30
110,107,NM
110,108,30
110,109,30
110,110,3
111,97,6
111,98,6
111,99,NM
111,100,NM
111,101,6
111,102,8
111,103,0
111,104,6
111,105,0
111,106,6
111,107,NM
111,108,0
111,109,6
111,110,3
111,111,NM
112,97,15
112,98,15
112,99,NM
112,100,NM
112,101,15
112,102,15
112,103,5
112,104,30
112,105,8
112,106,30
112,107,NM
112,108,30
112,109,30
112,110,15
112,111,5
112,112,1
113,97,8
113,98,2
113,99,NM
113,100,NM
113,101,0
113,102,NM
113,103,5
113,104,5
113,105,5
113,106,0
113,107,NM
113,108,5
113,109,5
113,110,3
113,111,0
113,112,1
113,113,1
114,97,61
114,98,30
114,99,NM
114,100,NM
114,101,0
114,102,30
114,103,8
114,104,8
114,105,0
114,106,15
114,107,NM
114,108,NM
114,109,61
114,110,8
114,111,0
114,112,30
114,113,15
114,114,NA
115,97,15
115,98,8
115,99,NM
115,100,NM
115,101,NM
115,102,11
115,103,NM
115,104,NM
115,105,NM
115,106,15
115,107,NM
115,108,NM
115,109,NM
115,110,8
115,111,NM
115,112,5
115,113,NM
115,114,NM
115,115,NM
116,97,30
116,98,61
116,99,NM
116,100,NM
116,101,46
116,102,30
116,103,15
116,104,30
116,105,15
116,106,61
116,107,NM
116,108,30
116,109,30
116,110,30
116,111,6
116,112,3
116,113,5
116,114,30
116,115,30
116,116,8
117,97,8
117,98,15
117,99,NM
117,100,NM
117,101,6
117,102,6
117,103,6
117,104,6
117,105,6
117,106,6
117,107,NM
117,108,3
117,109,3
117,110,3
117,111,NM
117,112,3
117,113,3
117,114,3
117,115,3
117,116,3
117,117,NM
118,97,5
118,98,5
118,99,NM
118,100,NM
118,101,5
118,102,8
118,103,1
118,104,5
118,105,5
118,106,12
118,107,NM
118,108,NM
118,109,6
118,110,5
118,111,1
118,112,3
118,113,3
118,114,3
118,115,NM
118,116,5
118,117,NM
118,118,NM
119,97,61
119,98,30
119,99,NM
119,100,NM
119,101,8
119,102,8
119,103,8
119,104,0
119,105,NM
119,106,8
119,107,NM
119,108,NM
119,109,30
119,110,8
119,111,8
119,112,30
119,113,15
119,114,NA
119,115,NM
119,116,30
119,117,3
119,118,NM
119,119,NA
120,97,61
120,98,61
120,99,NM
120,100,NM
120,101,46
120,102,15
120,103,"NFPA 58
API 2510"
120,104,30
120,105,15
120,106,61
120,107,NM
120,108,61
120,109,30
120,110,30
120,111,8
120,112,"NFPA 58
API 2510"
120,113,8
120,114,61
120,115,30
120,116,61
120,117,8
120,118,NM
120,119,"NFPA 30
NFPA 58
API 2510"
120,120,"NFPA 30
NFPA 58
API 2510"
121,97,61
121,98,91
121,99,NM
121,100,NM
121,101,76
121,102,30
121,103,"NFPA 58
API 2510"
121,104,61
121,105,30
121,106,91
121,107,NM
121,108,91
121,109,30
121,110,30
121,111,15
121,112,"NFPA 58
API 2510"
121,113,8
121,114,61
121,115,30
121,116,61
121,117,15
121,118,NM
121,119,"NFPA 30
NFPA 58
API 2510"
121,120,"NFPA 30
NFPA 58
API 2510"
121,121,"NFPA 30
NFPA 58
API 2510"
123,97,NFPA 30
123,98,NFPA 30
123,99,NM
123,100,NM
123,101,NFPA 30
123,102,NFPA 30
123,103,8
123,104,NFPA 30
123,105,NFPA 30
123,106,61
123,107,NM
123,108,NFPA 30
123,109,NFPA 30
123,110,NFPA 30
123,111,NFPA 30
123,112,NFPA 30
123,113,NFPA 30
123,114,NFPA 30
123,115,NM
123,116,NFPA 30
123,117,NM
123,118,NM
123,119,"NFPA 30
NFPA 58
API 2510"
123,120,"NFPA 30
NFPA 58
API 2510"
123,121,"NFPA 30
NFPA 58
API 2510"
123,122,"NFPA 30
NFPA 58
API 2510"
124,97,61
124,98,61
124,99,NM
124,100,NM
124,101,61
124,102,61
124,103,8
124,104,61
124,105,NM
124,106,76
124,107,NM
124,108,61
124,109,46
124,110,NM
124,111,3
124,112,NM
124,113,NM
124,114,61
124,115,NM
124,116,61
124,117,NM
124,118,NM
124,119,"NFPA 30
NFPA 58
API 2510"
124,120,"NFPA 30
NFPA 58
API 2510"
124,121,"NFPA 30
NFPA 58
API 2510"
124,122,"NFPA 30
NFPA 58
API 2510"
124,123,"NFPA 30
NFPA 58
API 2510"
125,97,30
125,98,30
125,99,NM
125,100,NM
125,101,15
125,102,15
125,103,3
125,104,30
125,105,15
125,106,61
125,107,NM
125,108,30
125,109,61
125,110,30
125,111,5
125,112,NM
125,113,NM
125,114,30
125,115,NM
125,116,61
125,117,6
125,118,5
125,119,30
125,120,61
125,121,61
125,122,NM
125,123,46
125,124,15
126,126,NM
127,126,15
127,127,3
128,126,NM
128,127,NM
128,128,NM
129,126,NM
129,127,NM
129,128,NM
129,129,NM
130,126,15
130,127,8
130,128,NM
130,129,NM
130,130,NM
131,126,15
131,127,15
131,128,NM
131,129,NM
131,130,15
131,131,NM
132,126,15
132,127,8
132,128,NM
132,129,NM
132,130,2
132,131,15
132,132,2
133,126,15
133,127,15
133,128,NM
133,129,NM
133,130,15
133,131,15
133,132,15
133,133,1
134,126,15
134,127,8
134,128,NM
134,129,NM
134,130,5
134,131,5
134,132,5
134,133,NM
134,134,NM
135,126,15
135,127,8
135,128,NM
135,129,NM
135,130,2
135,131,15
135,132,2
135,133,15
135,134,5
135,135,NM
136,126,30
136,127,30
136,128,NM
136,129,NM
136,130,15
136,131,30
136,132,8
136,133,15
136,134,12
136,135,15
136,136,8
137,126,6
137,127,5
137,128,NM
137,129,NM
137,130,NM
137,131,8
137,132,2
137,133,3
137,134,ALP
137,135,1
137,136,8
137,137,NM
138,126,2
138,127,NM
138,128,NM
138,129,NM
138,130,NM
138,131,1
138,132,1
138,133,3
138,134,ALP
138,135,1
138,136,1
138,137,NM
138,138,NM
139,126,15
139,127,8
139,128,NM
139,129,NM
139,130,8
139,131,15
139,132,2
139,133,15
139,134,8
139,135,2
139,136,15
139,137,1
139,138,0
139,139,1
140,126,8
140,127,2
140,128,NM
140,129,NM
140,130,NM
140,131,NM
140,132,1
140,133,8
140,134,2
140,135,1
140,136,8
140,137,1
140,138,0
140,139,1
140,140,1
141,126,15
141,127,8
141,128,NM
141,129,NM
141,130,3
141,131,15
141,132,3
141,133,15
141,134,5
141,135,3
141,136,8
141,137,3
141,138,2
141,139,3
141,140,2
141,141,3
142,126,15
142,127,8
142,128,NM
142,129,NM
142,130,15
142,131,15
142,132,6
142,133,15
142,134,5
142,135,8
142,136,15
142,137,5
142,138,NM
142,139,3
142,140,1
142,141,15
142,142,NM
143,126,15
143,127,15
143,128,NM
143,129,NM
143,130,6
143,131,15
143,132,6
143,133,1
143,134,1
143,135,6
143,136,15
143,137,0
143,138,0
143,139,6
143,140,1
143,141,15
143,142,9
143,143,0
144,126,15
144,127,8
144,128,NM
144,129,NM
144,130,NM
144,131,15
144,132,1
144,133,15
144,134,5
144,135,1
144,136,15
144,137,0
144,138,0
144,139,2
144,140,1
144,141,6
144,142,15
144,143,5
144,144,0
145,126,15
145,127,8
145,128,NM
145,129,NM
145,130,2.5
145,131,15
145,132,2
145,133,15
145,134,5
145,135,2
145,136,15
145,137,2
145,138,2
145,139,2
145,140,2
145,141,3
145,142,6
145,143,8
145,144,2
145,145,2
146,126,15
146,127,15
146,128,NM
146,129,NM
146,130,8
146,131,5
146,132,8
146,133,1
146,134,1
146,135,5
146,136,15
146,137,0
146,138,0
146,139,8
146,140,1
146,141,15
146,142,6
146,143,0
146,144,0
146,145,8
146,146,0
